{
    "id": "lulzbot_gladiator_banded_tiger",
    "name": "LulzBot TAZ ProXT | HS | 0.8mm",
    "inherits": "lulzbot_gladiator_base",
    "version": 2,
    "metadata":
    {
        "type": "machine",
        "visible": true,
        "priority": "1",
        "machine_extruder_trains":
        {
            "0": "lulzbot_gladiator_banded_tiger_extruder"
        },
        "platform": "gladiator_bed.stl",
        "platform_offset":
        [
            0,
            -25,
            0
        ],
        "category": "LulzBot",
        "firmware_toolhead_name": "HardenedSteel",
        "base_machine": "LulzBot TAZ ProXT",
        "base_machine_name": "LulzBot TAZ ProXT",
        "preferred_material": "*PolyLite_PLA*",
        "user_toolhead_name": "HS | 0.8mm",
        "toolhead_info_link": "https://www.lulzbot.com/store/tool-heads/hs-tool-head-hardened-steel-08-mm",
        "default_category": "All"
    },
    "overrides":
    {
        "machine_name":
        {
            "default_value": "LulzBot Pro Single Extruder HS"
        },
        "machine_start_gcode":
        {
            "default_value_from_file": "lulzbot_gladiator_banded_tiger_start"
        },
        "machine_end_gcode":
        {
            "default_value_from_file": "lulzbot_gladiator_banded_tiger_end"
        },
        "machine_level_x_axis_gcode":
        {
            "default_value_from_file": "lulzbot_gladiator_level_x_axis"
        },
        "machine_extruder_count": {
            "default_value": 1
        },
        "machine_width":
        {
            "default_value": 282
        },
        "machine_depth":
        {
            "default_value": 282
        },
        "machine_height":
        {
            "default_value": 586
        },
        "machine_wipe_gcode":
        {
            "default_value_from_file": "lulzbot_gladiator_banded_tiger_wipe"
        },
        "layer_start_x": { "value": "100" },
        "layer_start_y": { "value": "100" }
    }
}
